{
    "apiVersion": "v1",
    "kind": "Service",
    "metadata": {
        "name": "mysql-svc",
        "labels" : {
            "version":"v1",
            "app": "mysql-svc"
        }
    },
    "spec": {
        "selector": {
            "app":"mysql",
            "version":"v1"
        },
        "type": "ClusterIP",
        "ports": [
            {
                "protocol":"TCP",
                "port": 3306
            }
        ]
    }
}